Índice de Transparência nos Ministérios Públicos
…
Índice de Transparência nos Ministérios Públicos

Índice de Facilidade

Necessidade de login

Necessidade de Login: a necessidade de fornecimento de informações pessoais e autenticação para acesso dos dados. Requrer é o pior caso.

Valores:

\(1\): não requer login

\(0\): requer login

## # A tibble: 903 × 5
##    orgao   ano   mes nao_requer_login indice_facilidade
##    <chr> <int> <int> <lgl>                        <dbl>
##  1 MP-PB  2018     1 TRUE                           0.7
##  2 MP-PB  2018     2 TRUE                           0.7
##  3 MP-PB  2018     3 TRUE                           0.7
##  4 MP-PB  2018     4 TRUE                           0.7
##  5 MP-PB  2018     5 TRUE                           0.7
##  6 MP-PB  2018     6 TRUE                           0.7
##  7 MP-PB  2018     7 TRUE                           0.7
##  8 MP-PB  2018     8 TRUE                           0.7
##  9 MP-PB  2018     9 TRUE                           0.7
## 10 MP-PB  2018    10 TRUE                           0.7
## # … with 893 more rows
…
